Logined as Semen Sosnickiy [12*]
a = lx
  lx = lw OR lv
    lw = lc LSHIFT 1
      lc = lb OR la
        lb = kh LSHIFT 1
          kh = kg OR kf
            kg = jm LSHIFT 1
              jm = jl OR jk
                jl = ir LSHIFT 1
                  ir = iq OR ip
                    iq = hw LSHIFT 1
                      hw = hv OR hu
                        hv = hb LSHIFT 1
                          hb = ha OR gz
                            ha = gg LSHIFT 1
                              gg = gf OR ge
                                gf = fl LSHIFT 1
                                  fl = fk OR fj
                                    fk = eq LSHIFT 1
                                      eq = ep OR eo
                                        ep = dv LSHIFT 1
                                          dv = du OR dt
                                            du = da LSHIFT 1
                                              da = cz OR cy
                                                cz = cf LSHIFT 1
                                                  cf = ce OR cd
                                                    ce = bk LSHIFT 1
                                                      bk = bj OR bi
                                                        bj = ap LSHIFT 1
                                                          ap = ao OR an
                                                            ao = u LSHIFT 1
                                                              u = t OR s
                                                                t = c LSHIFT 1
                                                                  c = 0
                                                                s = 1 AND r
                                                                  r = o AND q
                                                                    o = b OR n
                                                                      b = 14146
                                                                      n = k AND m
                                                                        k = d OR j
                                                                          d = b RSHIFT 2
                                                                            b = 14146 (knowledge)
                                                                          j = g AND i
                                                                            g = e OR f
                                                                              e = b RSHIFT 3
                                                                                b = 14146 (knowledge)
                                                                              f = b RSHIFT 5
                                                                                b = 14146 (knowledge)
                                                                            i = NOT h
                                                                              h = e AND f
                                                                                e = 1768 (knowledge)
                                                                                f = 442 (knowledge)
                                                                        m = NOT l
                                                                          l = d AND j
                                                                            d = 3536 (knowledge)
                                                                            j = 1874 (knowledge)
                                                                    q = NOT p
                                                                      p = b AND n
                                                                        b = 14146 (knowledge)
                                                                        n = 2690 (knowledge)
                                                            an = 1 AND am
                                                              am = aj AND al
                                                                aj = x OR ai
                                                                  x = v OR w
                                                                    v = b RSHIFT 1
                                                                      b = 14146 (knowledge)
                                                                    w = s LSHIFT 15
                                                                      s = 0 (knowledge)
                                                                  ai = af AND ah
                                                                    af = y OR ae
                                                                      y = x RSHIFT 2
                                                                        x = 7073 (knowledge)
                                                                      ae = ab AND ad
                                                                        ab = z OR aa
                                                                          z = x RSHIFT 3
                                                                            x = 7073 (knowledge)
                                                                          aa = x RSHIFT 5
                                                                            x = 7073 (knowledge)
                                                                        ad = NOT ac
                                                                          ac = z AND aa
                                                                            z = 884 (knowledge)
                                                                            aa = 221 (knowledge)
                                                                    ah = NOT ag
                                                                      ag = y AND ae
                                                                        y = 1768 (knowledge)
                                                                        ae = 937 (knowledge)
                                                                al = NOT ak
                                                                  ak = x AND ai
                                                                    x = 7073 (knowledge)
                                                                    ai = 1345 (knowledge)
                                                        bi = 1 AND bh
                                                          bh = be AND bg
                                                            be = as OR bd
                                                              as = aq OR ar
                                                                aq = x RSHIFT 1
                                                                  x = 7073 (knowledge)
                                                                ar = an LSHIFT 15
                                                                  an = 0 (knowledge)
                                                              bd = ba AND bc
                                                                ba = at OR az
                                                                  at = as RSHIFT 2
                                                                    as = 3536 (knowledge)
                                                                  az = aw AND ay
                                                                    aw = au OR av
                                                                      au = as RSHIFT 3
                                                                        as = 3536 (knowledge)
                                                                      av = as RSHIFT 5
                                                                        as = 3536 (knowledge)
                                                                    ay = NOT ax
                                                                      ax = au AND av
                                                                        au = 442 (knowledge)
                                                                        av = 110 (knowledge)
                                                                bc = NOT bb
                                                                  bb = at AND az
                                                                    at = 884 (knowledge)
                                                                    az = 468 (knowledge)
                                                            bg = NOT bf
                                                              bf = as AND bd
                                                                as = 3536 (knowledge)
                                                                bd = 672 (knowledge)
                                                    cd = 1 AND cc
                                                      cc = bz AND cb
                                                        bz = bn OR by
                                                          bn = bl OR bm
                                                            bl = as RSHIFT 1
                                                              as = 3536 (knowledge)
                                                            bm = bi LSHIFT 15
                                                              bi = 0 (knowledge)
                                                          by = bv AND bx
                                                            bv = bo OR bu
                                                              bo = bn RSHIFT 2
                                                                bn = 1768 (knowledge)
                                                              bu = br AND bt
                                                                br = bp OR bq
                                                                  bp = bn RSHIFT 3
                                                                    bn = 1768 (knowledge)
                                                                  bq = bn RSHIFT 5
                                                                    bn = 1768 (knowledge)
                                                                bt = NOT bs
                                                                  bs = bp AND bq
                                                                    bp = 221 (knowledge)
                                                                    bq = 55 (knowledge)
                                                            bx = NOT bw
                                                              bw = bo AND bu
                                                                bo = 442 (knowledge)
                                                                bu = 234 (knowledge)
                                                        cb = NOT ca
                                                          ca = bn AND by
                                                            bn = 1768 (knowledge)
                                                            by = 336 (knowledge)
                                                cy = 1 AND cx
                                                  cx = cu AND cw
                                                    cu = ci OR ct
                                                      ci = cg OR ch
                                                        cg = bn RSHIFT 1
                                                          bn = 1768 (knowledge)
                                                        ch = cd LSHIFT 15
                                                          cd = 0 (knowledge)
                                                      ct = cq AND cs
                                                        cq = cj OR cp
                                                          cj = ci RSHIFT 2
                                                            ci = 884 (knowledge)
                                                          cp = cm AND co
                                                            cm = ck OR cl
                                                              ck = ci RSHIFT 3
                                                                ci = 884 (knowledge)
                                                              cl = ci RSHIFT 5
                                                                ci = 884 (knowledge)
                                                            co = NOT cn
                                                              cn = ck AND cl
                                                                ck = 110 (knowledge)
                                                                cl = 27 (knowledge)
                                                        cs = NOT cr
                                                          cr = cj AND cp
                                                            cj = 221 (knowledge)
                                                            cp = 117 (knowledge)
                                                    cw = NOT cv
                                                      cv = ci AND ct
                                                        ci = 884 (knowledge)
                                                        ct = 168 (knowledge)
                                            dt = 1 AND ds
                                              ds = dp AND dr
                                                dp = dd OR do
                                                  dd = db OR dc
                                                    db = ci RSHIFT 1
                                                      ci = 884 (knowledge)
                                                    dc = cy LSHIFT 15
                                                      cy = 0 (knowledge)
                                                  do = dl AND dn
                                                    dl = de OR dk
                                                      de = dd RSHIFT 2
                                                        dd = 442 (knowledge)
                                                      dk = dh AND dj
                                                        dh = df OR dg
                                                          df = dd RSHIFT 3
                                                            dd = 442 (knowledge)
                                                          dg = dd RSHIFT 5
                                                            dd = 442 (knowledge)
                                                        dj = NOT di
                                                          di = df AND dg
                                                            df = 55 (knowledge)
                                                            dg = 13 (knowledge)
                                                    dn = NOT dm
                                                      dm = de AND dk
                                                        de = 110 (knowledge)
                                                        dk = 58 (knowledge)
                                                dr = NOT dq
                                                  dq = dd AND do
                                                    dd = 442 (knowledge)
                                                    do = 84 (knowledge)
                                        eo = 1 AND en
                                          en = ek AND em
                                            ek = dy OR ej
                                              dy = dw OR dx
                                                dw = dd RSHIFT 1
                                                  dd = 442 (knowledge)
                                                dx = dt LSHIFT 15
                                                  dt = 0 (knowledge)
                                              ej = eg AND ei
                                                eg = dz OR ef
                                                  dz = dy RSHIFT 2
                                                    dy = 221 (knowledge)
                                                  ef = ec AND ee
                                                    ec = ea OR eb
                                                      ea = dy RSHIFT 3
                                                        dy = 221 (knowledge)
                                                      eb = dy RSHIFT 5
                                                        dy = 221 (knowledge)
                                                    ee = NOT ed
                                                      ed = ea AND eb
                                                        ea = 27 (knowledge)
                                                        eb = 6 (knowledge)
                                                ei = NOT eh
                                                  eh = dz AND ef
                                                    dz = 55 (knowledge)
                                                    ef = 29 (knowledge)
                                            em = NOT el
                                              el = dy AND ej
                                                dy = 221 (knowledge)
                                                ej = 42 (knowledge)
                                    fj = 1 AND fi
                                      fi = ff AND fh
                                        ff = et OR fe
                                          et = er OR es
                                            er = dy RSHIFT 1
                                              dy = 221 (knowledge)
                                            es = eo LSHIFT 15
                                              eo = 1 (knowledge)
                                          fe = fb AND fd
                                            fb = eu OR fa
                                              eu = et RSHIFT 2
                                                et = 32878 (knowledge)
                                              fa = ex AND ez
                                                ex = ev OR ew
                                                  ev = et RSHIFT 3
                                                    et = 32878 (knowledge)
                                                  ew = et RSHIFT 5
                                                    et = 32878 (knowledge)
                                                ez = NOT ey
                                                  ey = ev AND ew
                                                    ev = 4109 (knowledge)
                                                    ew = 1027 (knowledge)
                                            fd = NOT fc
                                              fc = eu AND fa
                                                eu = 8219 (knowledge)
                                                fa = 5134 (knowledge)
                                        fh = NOT fg
                                          fg = et AND fe
                                            et = 32878 (knowledge)
                                            fe = 13333 (knowledge)
                                ge = 1 AND gd
                                  gd = ga AND gc
                                    ga = fo OR fz
                                      fo = fm OR fn
                                        fm = et RSHIFT 1
                                          et = 32878 (knowledge)
                                        fn = fj LSHIFT 15
                                          fj = 1 (knowledge)
                                      fz = fw AND fy
                                        fw = fp OR fv
                                          fp = fo RSHIFT 2
                                            fo = 49207 (knowledge)
                                          fv = fs AND fu
                                            fs = fq OR fr
                                              fq = fo RSHIFT 3
                                                fo = 49207 (knowledge)
                                              fr = fo RSHIFT 5
                                                fo = 49207 (knowledge)
                                            fu = NOT ft
                                              ft = fq AND fr
                                                fq = 6150 (knowledge)
                                                fr = 1537 (knowledge)
                                        fy = NOT fx
                                          fx = fp AND fv
                                            fp = 12301 (knowledge)
                                            fv = 7687 (knowledge)
                                    gc = NOT gb
                                      gb = fo AND fz
                                        fo = 49207 (knowledge)
                                        fz = 11786 (knowledge)
                            gz = 1 AND gy
                              gy = gv AND gx
                                gv = gj OR gu
                                  gj = gh OR gi
                                    gh = fo RSHIFT 1
                                      fo = 49207 (knowledge)
                                    gi = ge LSHIFT 15
                                      ge = 1 (knowledge)
                                  gu = gr AND gt
                                    gr = gk OR gq
                                      gk = gj RSHIFT 2
                                        gj = 57371 (knowledge)
                                      gq = gn AND gp
                                        gn = gl OR gm
                                          gl = gj RSHIFT 3
                                            gj = 57371 (knowledge)
                                          gm = gj RSHIFT 5
                                            gj = 57371 (knowledge)
                                        gp = NOT go
                                          go = gl AND gm
                                            gl = 7171 (knowledge)
                                            gm = 1792 (knowledge)
                                    gt = NOT gs
                                      gs = gk AND gq
                                        gk = 14342 (knowledge)
                                        gq = 6915 (knowledge)
                                gx = NOT gw
                                  gw = gj AND gu
                                    gj = 57371 (knowledge)
                                    gu = 8965 (knowledge)
                        hu = 1 AND ht
                          ht = hq AND hs
                            hq = he OR hp
                              he = hc OR hd
                                hc = gj RSHIFT 1
                                  gj = 57371 (knowledge)
                                hd = gz LSHIFT 15
                                  gz = 0 (knowledge)
                              hp = hm AND ho
                                hm = hf OR hl
                                  hf = he RSHIFT 2
                                    he = 28685 (knowledge)
                                  hl = hi AND hk
                                    hi = hg OR hh
                                      hg = he RSHIFT 3
                                        he = 28685 (knowledge)
                                      hh = he RSHIFT 5
                                        he = 28685 (knowledge)
                                    hk = NOT hj
                                      hj = hg AND hh
                                        hg = 3585 (knowledge)
                                        hh = 896 (knowledge)
                                ho = NOT hn
                                  hn = hf AND hl
                                    hf = 7171 (knowledge)
                                    hl = 3457 (knowledge)
                            hs = NOT hr
                              hr = he AND hp
                                he = 28685 (knowledge)
                                hp = 4482 (knowledge)
                    ip = 1 AND io
                      io = il AND in
                        il = hz OR ik
                          hz = hx OR hy
                            hx = he RSHIFT 1
                              he = 28685 (knowledge)
                            hy = hu LSHIFT 15
                              hu = 1 (knowledge)
                          ik = ih AND ij
                            ih = ia OR ig
                              ia = hz RSHIFT 2
                                hz = 47110 (knowledge)
                              ig = id AND if
                                id = ib OR ic
                                  ib = hz RSHIFT 3
                                    hz = 47110 (knowledge)
                                  ic = hz RSHIFT 5
                                    hz = 47110 (knowledge)
                                if = NOT ie
                                  ie = ib AND ic
                                    ib = 5888 (knowledge)
                                    ic = 1472 (knowledge)
                            ij = NOT ii
                              ii = ia AND ig
                                ia = 11777 (knowledge)
                                ig = 4800 (knowledge)
                        in = NOT im
                          im = hz AND ik
                            hz = 47110 (knowledge)
                            ik = 15553 (knowledge)
                jk = 1 AND jj
                  jj = jg AND ji
                    jg = iu OR jf
                      iu = is OR it
                        is = hz RSHIFT 1
                          hz = 47110 (knowledge)
                        it = ip LSHIFT 15
                          ip = 1 (knowledge)
                      jf = jc AND je
                        jc = iv OR jb
                          iv = iu RSHIFT 2
                            iu = 56323 (knowledge)
                          jb = iy AND ja
                            iy = iw OR ix
                              iw = iu RSHIFT 3
                                iu = 56323 (knowledge)
                              ix = iu RSHIFT 5
                                iu = 56323 (knowledge)
                            ja = NOT iz
                              iz = iw AND ix
                                iw = 7040 (knowledge)
                                ix = 1760 (knowledge)
                        je = NOT jd
                          jd = iv AND jb
                            iv = 14080 (knowledge)
                            jb = 7520 (knowledge)
                    ji = NOT jh
                      jh = iu AND jf
                        iu = 56323 (knowledge)
                        jf = 10848 (knowledge)
            kf = 1 AND ke
              ke = kb AND kd
                kb = jp OR ka
                  jp = jn OR jo
                    jn = iu RSHIFT 1
                      iu = 56323 (knowledge)
                    jo = jk LSHIFT 15
                      jk = 1 (knowledge)
                  ka = jx AND jz
                    jx = jq OR jw
                      jq = jp RSHIFT 2
                        jp = 60929 (knowledge)
                      jw = jt AND jv
                        jt = jr OR js
                          jr = jp RSHIFT 3
                            jp = 60929 (knowledge)
                          js = jp RSHIFT 5
                            jp = 60929 (knowledge)
                        jv = NOT ju
                          ju = jr AND js
                            jr = 7616 (knowledge)
                            js = 1904 (knowledge)
                    jz = NOT jy
                      jy = jq AND jw
                        jq = 15232 (knowledge)
                        jw = 6832 (knowledge)
                kd = NOT kc
                  kc = jp AND ka
                    jp = 60929 (knowledge)
                    ka = 8496 (knowledge)
        la = 1 AND kz
          kz = kw AND ky
            kw = kk OR kv
              kk = ki OR kj
                ki = jp RSHIFT 1
                  jp = 60929 (knowledge)
                kj = kf LSHIFT 15
                  kf = 1 (knowledge)
              kv = ks AND ku
                ks = kl OR kr
                  kl = kk RSHIFT 2
                    kk = 63232 (knowledge)
                  kr = ko AND kq
                    ko = km OR kn
                      km = kk RSHIFT 3
                        kk = 63232 (knowledge)
                      kn = kk RSHIFT 5
                        kk = 63232 (knowledge)
                    kq = NOT kp
                      kp = km AND kn
                        km = 7904 (knowledge)
                        kn = 1976 (knowledge)
                ku = NOT kt
                  kt = kl AND kr
                    kl = 15808 (knowledge)
                    kr = 6488 (knowledge)
            ky = NOT kx
              kx = kk AND kv
                kk = 63232 (knowledge)
                kv = 9368 (knowledge)
    lv = 1 AND lu
      lu = lr AND lt
        lr = lf OR lq
          lf = ld OR le
            ld = kk RSHIFT 1
              kk = 63232 (knowledge)
            le = la LSHIFT 15
              la = 0 (knowledge)
          lq = ln AND lp
            ln = lg OR lm
              lg = lf RSHIFT 2
                lf = 31616 (knowledge)
              lm = lj AND ll
                lj = lh OR li
                  lh = lf RSHIFT 3
                    lf = 31616 (knowledge)
                  li = lf RSHIFT 5
                    lf = 31616 (knowledge)
                ll = NOT lk
                  lk = lh AND li
                    lh = 3952 (knowledge)
                    li = 988 (knowledge)
            lp = NOT lo
              lo = lg AND lm
                lg = 7904 (knowledge)
                lm = 3244 (knowledge)
        lt = NOT ls
          ls = lf AND lq
            lf = 31616 (knowledge)
            lq = 4684 (knowledge)
Answer: 956. Sending...

That's the right answer!  You are one gold star closer to powering the weather machine. [Return to Day 7]
